\relax 
\citation{berant2014semantic,yang2014joint}
\citation{DBLP:conf/emnlp/BordesCW14}
\citation{bordes2015large}
\citation{sukhbaatar2015end}
\@writefile{toc}{\contentsline {section}{\numberline {1}Introduction}{1}}
\@writefile{toc}{\contentsline {section}{\numberline {2}Task Definition}{1}}
\citation{bollacker2008freebase}
\citation{fader2011identifying}
\citation{berant2013semantic}
\citation{bordes2015large}
\citation{fader-zettlemoyer-etzioni:2013:ACL2013}
\@writefile{toc}{\contentsline {section}{\numberline {3}Preprocessing KB and Questions}{2}}
\@writefile{toc}{\contentsline {subsection}{\numberline {3.1}Processing FREEBASE}{2}}
\citation{lin2012entity}
\citation{bordes2015large}
\citation{socher2013reasoning}
\@writefile{toc}{\contentsline {subsection}{\numberline {3.2}Processing Reverb KB}{3}}
\@writefile{toc}{\contentsline {subsection}{\numberline {3.3}Processing Question}{3}}
\@writefile{toc}{\contentsline {section}{\numberline {4}Model Description}{3}}
\@writefile{toc}{\contentsline {subsection}{\numberline {4.1}Fact Extraction}{3}}
\newlabel{factgen}{{4.1}{3}}
\@writefile{toc}{\contentsline {subsection}{\numberline {4.2}Factual Memory Network}{3}}
\@writefile{toc}{\contentsline {subsubsection}{\numberline {4.2.1}Single Layer}{3}}
\newlabel{eq:gk}{{1}{3}}
\newlabel{eq:QA}{{2}{3}}
\citation{fader-zettlemoyer-etzioni:2013:ACL2013,bordes2015large}
\@writefile{lof}{\contentsline {figure}{\numberline {1}{\ignorespaces Recursive Structure of our model.}}{4}}
\newlabel{fig:mod}{{1}{4}}
\@writefile{toc}{\contentsline {subsubsection}{\numberline {4.2.2}Multiple Layers}{4}}
\@writefile{toc}{\contentsline {subsubsection}{\numberline {4.2.3}Output Function}{4}}
\newlabel{eq:sc}{{5}{4}}
\@writefile{toc}{\contentsline {subsection}{\numberline {4.3}Paraphrases Supervision}{4}}
\@writefile{toc}{\contentsline {subsection}{\numberline {4.4}Training Objectives}{4}}
\citation{cai-yates:2013:*SEM,berant2013semantic,kwiatkowski-EtAl:2013:EMNLP,berant2014semantic,fader2014open}
\citation{fader-zettlemoyer-etzioni:2013:ACL2013,reddy2014large}
\citation{bordes2014open,DBLP:conf/emnlp/BordesCW14}
\citation{dong-EtAl:2015:ACL-IJCNLP1}
\citation{bordes2015large}
\@writefile{toc}{\contentsline {section}{\numberline {5}Related Work}{5}}
\citation{berant2013semantic,berant2014semantic}
\citation{fader-zettlemoyer-etzioni:2013:ACL2013}
\citation{bordes2014open,DBLP:conf/emnlp/BordesCW14,bordes2015large}
\citation{dong-EtAl:2015:ACL-IJCNLP1}
\citation{berant2013semantic,berant2014semantic}
\citation{berant2013semantic}
\citation{bordes2015large}
\citation{fader-zettlemoyer-etzioni:2013:ACL2013}
\citation{bordes2014open}
\citation{bordes2015large}
\citation{bordes2015large}
\citation{DBLP:conf/emnlp/BordesCW14}
\citation{berant2013semantic}
\citation{fader-zettlemoyer-etzioni:2013:ACL2013}
\citation{bordes2014open}
\citation{DBLP:conf/emnlp/BordesCW14}
\citation{berant2014semantic}
\citation{dong-EtAl:2015:ACL-IJCNLP1}
\citation{bordes2015large}
\citation{bordes2014open}
\@writefile{toc}{\contentsline {section}{\numberline {6}Experiments}{6}}
\@writefile{toc}{\contentsline {subsection}{\numberline {6.1}Baselines}{6}}
\@writefile{toc}{\contentsline {subsection}{\numberline {6.2}Experimental Setup}{6}}
\newlabel{sempre}{{1}{6}}
\@writefile{toc}{\contentsline {section}{\numberline {7}Results}{6}}
\@writefile{lot}{\contentsline {table}{\numberline {1}{\ignorespaces Results on Evaluation datasets. Acc = Accuracy}}{6}}
\newlabel{tab:mainres1}{{1}{6}}
\@writefile{lot}{\contentsline {table}{\numberline {2}{\ignorespaces Top-K results of our best model on each test set}}{7}}
\newlabel{tab:topk}{{2}{7}}
\@writefile{toc}{\contentsline {subsection}{\numberline {7.1}Performance and Error Analysis}{7}}
\@writefile{lot}{\contentsline {table}{\numberline {3}{\ignorespaces Results on variations of our model. \textbf  {w/o} = without. Abbreviations are highlighted in text}}{7}}
\newlabel{tab:mainres2}{{3}{7}}
\@writefile{lot}{\contentsline {table}{\numberline {4}{\ignorespaces Performance measures for various hop-configurations. Abbreviations are highlighted in text }}{7}}
\newlabel{tab:perf}{{4}{7}}
\citation{*}
\bibdata{naaclhlt2016}
\bibcite{Bast:2015:MAQ:2806416.2806472}{\citename {Bast and Haussmann}2015}
\@writefile{toc}{\contentsline {section}{\numberline {8}Conclusion}{8}}
\bibcite{berant2014semantic}{\citename {Berant and Liang}2014}
\bibcite{berant2013semantic}{\citename {Berant \bgroup et al.\egroup }2013}
\bibcite{bollacker2008freebase}{\citename {Bollacker \bgroup et al.\egroup }2008}
\bibcite{DBLP:conf/emnlp/BordesCW14}{\citename {Bordes \bgroup et al.\egroup }2014a}
\bibcite{bordes2014open}{\citename {Bordes \bgroup et al.\egroup }2014b}
\bibcite{bordes2015large}{\citename {Bordes \bgroup et al.\egroup }2015}
\bibcite{cai-yates:2013:*SEM}{\citename {Cai and Yates}2013}
\bibcite{dong-EtAl:2015:ACL-IJCNLP1}{\citename {Dong \bgroup et al.\egroup }2015}
\bibcite{fader2011identifying}{\citename {Fader \bgroup et al.\egroup }2011}
\bibcite{fader-zettlemoyer-etzioni:2013:ACL2013}{\citename {Fader \bgroup et al.\egroup }2013}
\bibcite{fader2014open}{\citename {Fader \bgroup et al.\egroup }2014}
\bibcite{kwiatkowski-EtAl:2013:EMNLP}{\citename {Kwiatkowski \bgroup et al.\egroup }2013}
\bibcite{lin2012entity}{\citename {Lin \bgroup et al.\egroup }2012}
\bibcite{reddy2014large}{\citename {Reddy \bgroup et al.\egroup }2014}
\bibcite{socher2013reasoning}{\citename {Socher \bgroup et al.\egroup }2013}
\bibcite{sukhbaatar2015end}{\citename {Sukhbaatar \bgroup et al.\egroup }2015}
\bibcite{weston2014memory}{\citename {Weston \bgroup et al.\egroup }2014}
\bibcite{yang2014joint}{\citename {Yang \bgroup et al.\egroup }2014}
\bibstyle{naaclhlt2016}
